{
  "lastUpdate": "19.06.2018",
  "contacts": [
    {
      "name": "Все вокзалы",
      "desc": "",
      "phones": [
        "+7 (800) 775-00-00"
      ],
      "address": "",
      "site": "",
      "emails": []
    },
    {
      "name": "Главный ЖД вокзал",
      "desc": "",
      "phones": [
        "+7 (863) 238-39-00",
        "+7 (863) 267-02-10"
      ],
      "address": "",
      "site": "",
      "emails": []
    },
    {
      "name": "Пригородный ЖД вокзал",
      "desc": "",
      "phones": [
        "+7 (863) 238-36-49"
      ],
      "address": "",
      "site": "",
      "emails": []
    },
    {
      "name": "Главный автовокзал",
      "desc": "",
      "phones": [
        "+7 (863) 205-41-41",
        "+7 (863) 205-41-11"
      ],
      "address": "",
      "site": "",
      "emails": []
    },
    {
      "name": "Пригородный автовокзал",
      "desc": "",
      "phones": [
        "+7 (863) 251-08-67"
      ],
      "address": "",
      "site": "",
      "emails": []
    },
    {
      "name": "Аэропорт",
      "desc": "",
      "phones": [
        "+7 (800) 100-03-33"
      ],
      "address": "",
      "site": "",
      "emails": []
    }
  ]
}